28

3
-1
8

10
3
9
-1
6
-1

4
7
-1
10
-1

5
1
-1
10
8
2
10
5
-1

5
-1
4
-1
5
-1
8
5
8
10
7
-1

9
10
9
5
-1
2
10
-1
10
1

7
10
6
-1
2
6
9
-1
4
2
4

6
6
-1
8

6
9
-1

2
1
3
-1
9
-1

2
10
9
8
3
4
-1
8

4
5
9
1
3
-1

1

6
10
9
1
-1
6
1
1
1
8
-1

1
2
1
-1
8
1
8
-1
6
5
5
-1

10
4

6
-1
2
5
-1

9
9

8
-1
3
-1
8
-1
8
-1
9
2

4
10
-1
5

8
10
-1
4
-1
-1
3
1
5
-1

10
4
8

4
3
2
-1
8
-1
4
10
-1
4
-2
-1
1
3
-1

1
5
2
1
5
-1
5
1
3
-1
6
-1
3
-1

5

9
8
5
-1
2
7
1
4
1
4
6

3
-1
3
1
9
-1

10
6
-1
4
10
6
8
2
5
4
